%YAML 1.1
%TAG !u! tag:unity3d.com,2011:
--- !u!1 &100460
GameObject:
  m_ObjectHideFlags: 1
  m_PrefabParentObject: {fileID: 0}
  m_PrefabInternal: {fileID: 100100000}
  serializedVersion: 4
  m_Component:
  - 4: {fileID: 479184}
  m_Layer: 0
  m_Name: f_index_01_L
  m_TagString: Untagged
  m_Icon: {fileID: 0}
  m_NavMeshLayer: 0
  m_StaticEditorFlags: 0
  m_IsActive: 1
--- !u!1 &106750
GameObject:
  m_ObjectHideFlags: 1
  m_PrefabParentObject: {fileID: 0}
  m_PrefabInternal: {fileID: 100100000}
  serializedVersion: 4
  m_Component:
  - 4: {fileID: 459182}
  m_Layer: 0
  m_Name: thumb_01_L
  m_TagString: Untagged
  m_Icon: {fileID: 0}
  m_NavMeshLayer: 0
  m_StaticEditorFlags: 0
  m_IsActive: 1
--- !u!1 &107658
GameObject:
  m_ObjectHideFlags: 1
  m_PrefabParentObject: {fileID: 0}
  m_PrefabInternal: {fileID: 100100000}
  serializedVersion: 4
  m_Component:
  - 4: {fileID: 413974}
  m_Layer: 0
  m_Name: f_pinky_03_R
  m_TagString: Untagged
  m_Icon: {fileID: 0}
  m_NavMeshLayer: 0
  m_StaticEditorFlags: 0
  m_IsActive: 1
--- !u!1 &109114
GameObject:
  m_ObjectHideFlags: 1
  m_PrefabParentObject: {fileID: 0}
  m_PrefabInternal: {fileID: 100100000}
  serializedVersion: 4
  m_Component:
  - 4: {fileID: 421882}
  m_Layer: 0
  m_Name: elbow_fan_L
  m_TagString: Untagged
  m_Icon: {fileID: 0}
  m_NavMeshLayer: 0
  m_StaticEditorFlags: 0
  m_IsActive: 1
--- !u!1 &109232
GameObject:
  m_ObjectHideFlags: 1
  m_PrefabParentObject: {fileID: 0}
  m_PrefabInternal: {fileID: 100100000}
  serializedVersion: 4
  m_Component:
  - 4: {fileID: 428946}
  m_Layer: 0
  m_Name: f_index_03_R
  m_TagString: Untagged
  m_Icon: {fileID: 0}
  m_NavMeshLayer: 0
  m_StaticEditorFlags: 0
  m_IsActive: 1
--- !u!1 &109264
GameObject:
  m_ObjectHideFlags: 1
  m_PrefabParentObject: {fileID: 0}
  m_PrefabInternal: {fileID: 100100000}
  serializedVersion: 4
  m_Component:
  - 4: {fileID: 419496}
  m_Layer: 0
  m_Name: f_index_02_R
  m_TagString: Untagged
  m_Icon: {fileID: 0}
  m_NavMeshLayer: 0
  m_StaticEditorFlags: 0
  m_IsActive: 1
--- !u!1 &111752
GameObject:
  m_ObjectHideFlags: 1
  m_PrefabParentObject: {fileID: 0}
  m_PrefabInternal: {fileID: 100100000}
  serializedVersion: 4
  m_Component:
  - 4: {fileID: 477918}
  m_Layer: 0
  m_Name: thumb_02_L
  m_TagString: Untagged
  m_Icon: {fileID: 0}
  m_NavMeshLayer: 0
  m_StaticEditorFlags: 0
  m_IsActive: 1
--- !u!1 &116016
GameObject:
  m_ObjectHideFlags: 1
  m_PrefabParentObject: {fileID: 0}
  m_PrefabInternal: {fileID: 100100000}
  serializedVersion: 4
  m_Component:
  - 4: {fileID: 474254}
  m_Layer: 0
  m_Name: palm_02_R
  m_TagString: Untagged
  m_Icon: {fileID: 0}
  m_NavMeshLayer: 0
  m_StaticEditorFlags: 0
  m_IsActive: 1
--- !u!1 &116994
GameObject:
  m_ObjectHideFlags: 1
  m_PrefabParentObject: {fileID: 0}
  m_PrefabInternal: {fileID: 100100000}
  serializedVersion: 4
  m_Component:
  - 4: {fileID: 489404}
  m_Layer: 0
  m_Name: forearm_L
  m_TagString: Untagged
  m_Icon: {fileID: 0}
  m_NavMeshLayer: 0
  m_StaticEditorFlags: 0
  m_IsActive: 1
--- !u!1 &118710
GameObject:
  m_ObjectHideFlags: 1
  m_PrefabParentObject: {fileID: 0}
  m_PrefabInternal: {fileID: 100100000}
  serializedVersion: 4
  m_Component:
  - 4: {fileID: 482312}
  m_Layer: 0
  m_Name: palm_04_L
  m_TagString: Untagged
  m_Icon: {fileID: 0}
  m_NavMeshLayer: 0
  m_StaticEditorFlags: 0
  m_IsActive: 1
--- !u!1 &118840
GameObject:
  m_ObjectHideFlags: 1
  m_PrefabParentObject: {fileID: 0}
  m_PrefabInternal: {fileID: 100100000}
  serializedVersion: 4
  m_Component:
  - 4: {fileID: 429980}
  m_Layer: 0
  m_Name: f_middle_03_R
  m_TagString: Untagged
  m_Icon: {fileID: 0}
  m_NavMeshLayer: 0
  m_StaticEditorFlags: 0
  m_IsActive: 1
--- !u!1 &118956
GameObject:
  m_ObjectHideFlags: 1
  m_PrefabParentObject: {fileID: 0}
  m_PrefabInternal: {fileID: 100100000}
  serializedVersion: 4
  m_Component:
  - 4: {fileID: 497842}
  m_Layer: 0
  m_Name: f_pinky_02_L
  m_TagString: Untagged
  m_Icon: {fileID: 0}
  m_NavMeshLayer: 0
  m_StaticEditorFlags: 0
  m_IsActive: 1
--- !u!1 &120382
GameObject:
  m_ObjectHideFlags: 1
  m_PrefabParentObject: {fileID: 0}
  m_PrefabInternal: {fileID: 100100000}
  serializedVersion: 4
  m_Component:
  - 4: {fileID: 474082}
  m_Layer: 0
  m_Name: palm_02_L
  m_TagString: Untagged
  m_Icon: {fileID: 0}
  m_NavMeshLayer: 0
  m_StaticEditorFlags: 0
  m_IsActive: 1
--- !u!1 &124156
GameObject:
  m_ObjectHideFlags: 1
  m_PrefabParentObject: {fileID: 0}
  m_PrefabInternal: {fileID: 100100000}
  serializedVersion: 4
  m_Component:
  - 4: {fileID: 425222}
  m_Layer: 0
  m_Name: scapula_L
  m_TagString: Untagged
  m_Icon: {fileID: 0}
  m_NavMeshLayer: 0
  m_StaticEditorFlags: 0
  m_IsActive: 1
--- !u!1 &124366
GameObject:
  m_ObjectHideFlags: 1
  m_PrefabParentObject: {fileID: 0}
  m_PrefabInternal: {fileID: 100100000}
  serializedVersion: 4
  m_Component:
  - 4: {fileID: 456378}
  m_Layer: 0
  m_Name: lat_dorsi_L
  m_TagString: Untagged
  m_Icon: {fileID: 0}
  m_NavMeshLayer: 0
  m_StaticEditorFlags: 0
  m_IsActive: 1
--- !u!1 &126514
GameObject:
  m_ObjectHideFlags: 1
  m_PrefabParentObject: {fileID: 0}
  m_PrefabInternal: {fileID: 100100000}
  serializedVersion: 4
  m_Component:
  - 4: {fileID: 431100}
  m_Layer: 0
  m_Name: f_pinky_01_R
  m_TagString: Untagged
  m_Icon: {fileID: 0}
  m_NavMeshLayer: 0
  m_StaticEditorFlags: 0
  m_IsActive: 1
--- !u!1 &128264
GameObject:
  m_ObjectHideFlags: 1
  m_PrefabParentObject: {fileID: 0}
  m_PrefabInternal: {fileID: 100100000}
  serializedVersion: 4
  m_Component:
  - 4: {fileID: 425470}
  m_Layer: 0
  m_Name: shoulder_R
  m_TagString: Untagged
  m_Icon: {fileID: 0}
  m_NavMeshLayer: 0
  m_StaticEditorFlags: 0
  m_IsActive: 1
--- !u!1 &129064
GameObject:
  m_ObjectHideFlags: 1
  m_PrefabParentObject: {fileID: 0}
  m_PrefabInternal: {fileID: 100100000}
  serializedVersion: 4
  m_Component:
  - 4: {fileID: 486974}
  m_Layer: 0
  m_Name: f_middle_02_L
  m_TagString: Untagged
  m_Icon: {fileID: 0}
  m_NavMeshLayer: 0
  m_StaticEditorFlags: 0
  m_IsActive: 1
--- !u!1 &129586
GameObject:
  m_ObjectHideFlags: 1
  m_PrefabParentObject: {fileID: 0}
  m_PrefabInternal: {fileID: 100100000}
  serializedVersion: 4
  m_Component:
  - 4: {fileID: 400900}
  m_Layer: 0
  m_Name: thumb_02_R
  m_TagString: Untagged
  m_Icon: {fileID: 0}
  m_NavMeshLayer: 0
  m_StaticEditorFlags: 0
  m_IsActive: 1
--- !u!1 &129926
GameObject:
  m_ObjectHideFlags: 1
  m_PrefabParentObject: {fileID: 0}
  m_PrefabInternal: {fileID: 100100000}
  serializedVersion: 4
  m_Component:
  - 4: {fileID: 411816}
  m_Layer: 0
  m_Name: f_pinky_01_L
  m_TagString: Untagged
  m_Icon: {fileID: 0}
  m_NavMeshLayer: 0
  m_StaticEditorFlags: 0
  m_IsActive: 1
--- !u!1 &130768
GameObject:
  m_ObjectHideFlags: 1
  m_PrefabParentObject: {fileID: 0}
  m_PrefabInternal: {fileID: 100100000}
  serializedVersion: 4
  m_Component:
  - 4: {fileID: 409496}
  m_Layer: 0
  m_Name: palm_03_R
  m_TagString: Untagged
  m_Icon: {fileID: 0}
  m_NavMeshLayer: 0
  m_StaticEditorFlags: 0
  m_IsActive: 1
--- !u!1 &134270
GameObject:
  m_ObjectHideFlags: 1
  m_PrefabParentObject: {fileID: 0}
  m_PrefabInternal: {fileID: 100100000}
  serializedVersion: 4
  m_Component:
  - 4: {fileID: 485896}
  m_Layer: 0
  m_Name: Desktop
  m_TagString: Untagged
  m_Icon: {fileID: 0}
  m_NavMeshLayer: 0
  m_StaticEditorFlags: 0
  m_IsActive: 1
--- !u!1 &134650
GameObject:
  m_ObjectHideFlags: 1
  m_PrefabParentObject: {fileID: 0}
  m_PrefabInternal: {fileID: 100100000}
  serializedVersion: 4
  m_Component:
  - 4: {fileID: 475060}
  m_Layer: 0
  m_Name: f_ring_01_L
  m_TagString: Untagged
  m_Icon: {fileID: 0}
  m_NavMeshLayer: 0
  m_StaticEditorFlags: 0
  m_IsActive: 1
--- !u!1 &137282
GameObject:
  m_ObjectHideFlags: 1
  m_PrefabParentObject: {fileID: 0}
  m_PrefabInternal: {fileID: 100100000}
  serializedVersion: 4
  m_Component:
  - 4: {fileID: 429168}
  m_Layer: 0
  m_Name: palm_03_L
  m_TagString: Untagged
  m_Icon: {fileID: 0}
  m_NavMeshLayer: 0
  m_StaticEditorFlags: 0
  m_IsActive: 1
--- !u!1 &142332
GameObject:
  m_ObjectHideFlags: 1
  m_PrefabParentObject: {fileID: 0}
  m_PrefabInternal: {fileID: 100100000}
  serializedVersion: 4
  m_Component:
  - 4: {fileID: 415892}
  m_Layer: 0
  m_Name: lat_dorsi_R
  m_TagString: Untagged
  m_Icon: {fileID: 0}
  m_NavMeshLayer: 0
  m_StaticEditorFlags: 0
  m_IsActive: 1
--- !u!1 &142500
GameObject:
  m_ObjectHideFlags: 1
  m_PrefabParentObject: {fileID: 0}
  m_PrefabInternal: {fileID: 100100000}
  serializedVersion: 4
  m_Component:
  - 4: {fileID: 414704}
  m_Layer: 0
  m_Name: scapula_R
  m_TagString: Untagged
  m_Icon: {fileID: 0}
  m_NavMeshLayer: 0
  m_StaticEditorFlags: 0
  m_IsActive: 1
--- !u!1 &148620
GameObject:
  m_ObjectHideFlags: 1
  m_PrefabParentObject: {fileID: 0}
  m_PrefabInternal: {fileID: 100100000}
  serializedVersion: 4
  m_Component:
  - 4: {fileID: 494112}
  m_Layer: 0
  m_Name: f_index_03_L
  m_TagString: Untagged
  m_Icon: {fileID: 0}
  m_NavMeshLayer: 0
  m_StaticEditorFlags: 0
  m_IsActive: 1
--- !u!1 &152416
GameObject:
  m_ObjectHideFlags: 1
  m_PrefabParentObject: {fileID: 0}
  m_PrefabInternal: {fileID: 100100000}
  serializedVersion: 4
  m_Component:
  - 4: {fileID: 458190}
  m_Layer: 0
  m_Name: palm_01_R
  m_TagString: Untagged
  m_Icon: {fileID: 0}
  m_NavMeshLayer: 0
  m_StaticEditorFlags: 0
  m_IsActive: 1
--- !u!1 &154328
GameObject:
  m_ObjectHideFlags: 1
  m_PrefabParentObject: {fileID: 0}
  m_PrefabInternal: {fileID: 100100000}
  serializedVersion: 4
  m_Component:
  - 4: {fileID: 407646}
  - 137: {fileID: 13791448}
  m_Layer: 0
  m_Name: Desktop_Body
  m_TagString: Untagged
  m_Icon: {fileID: 0}
  m_NavMeshLayer: 0
  m_StaticEditorFlags: 0
  m_IsActive: 1
--- !u!1 &157714
GameObject:
  m_ObjectHideFlags: 1
  m_PrefabParentObject: {fileID: 0}
  m_PrefabInternal: {fileID: 100100000}
  serializedVersion: 4
  m_Component:
  - 4: {fileID: 472472}
  m_Layer: 0
  m_Name: elbow_fan_R
  m_TagString: Untagged
  m_Icon: {fileID: 0}
  m_NavMeshLayer: 0
  m_StaticEditorFlags: 0
  m_IsActive: 1
--- !u!1 &162246
GameObject:
  m_ObjectHideFlags: 1
  m_PrefabParentObject: {fileID: 0}
  m_PrefabInternal: {fileID: 100100000}
  serializedVersion: 4
  m_Component:
  - 4: {fileID: 436940}
  m_Layer: 0
  m_Name: upper_arm_R
  m_TagString: Untagged
  m_Icon: {fileID: 0}
  m_NavMeshLayer: 0
  m_StaticEditorFlags: 0
  m_IsActive: 1
--- !u!1 &162452
GameObject:
  m_ObjectHideFlags: 0
  m_PrefabParentObject: {fileID: 0}
  m_PrefabInternal: {fileID: 100100000}
  serializedVersion: 4
  m_Component:
  - 4: {fileID: 400234}
  m_Layer: 0
  m_Name: arms
  m_TagString: Untagged
  m_Icon: {fileID: 0}
  m_NavMeshLayer: 0
  m_StaticEditorFlags: 0
  m_IsActive: 1
--- !u!1 &163600
GameObject:
  m_ObjectHideFlags: 1
  m_PrefabParentObject: {fileID: 0}
  m_PrefabInternal: {fileID: 100100000}
  serializedVersion: 4
  m_Component:
  - 4: {fileID: 478458}
  m_Layer: 0
  m_Name: palm_01_L
  m_TagString: Untagged
  m_Icon: {fileID: 0}
  m_NavMeshLayer: 0
  m_StaticEditorFlags: 0
  m_IsActive: 1
--- !u!1 &163986
GameObject:
  m_ObjectHideFlags: 1
  m_PrefabParentObject: {fileID: 0}
  m_PrefabInternal: {fileID: 100100000}
  serializedVersion: 4
  m_Component:
  - 4: {fileID: 441318}
  m_Layer: 0
  m_Name: f_middle_02_R
  m_TagString: Untagged
  m_Icon: {fileID: 0}
  m_NavMeshLayer: 0
  m_StaticEditorFlags: 0
  m_IsActive: 1
--- !u!1 &164906
GameObject:
  m_ObjectHideFlags: 1
  m_PrefabParentObject: {fileID: 0}
  m_PrefabInternal: {fileID: 100100000}
  serializedVersion: 4
  m_Component:
  - 4: {fileID: 460636}
  m_Layer: 0
  m_Name: thumb_03_R
  m_TagString: Untagged
  m_Icon: {fileID: 0}
  m_NavMeshLayer: 0
  m_StaticEditorFlags: 0
  m_IsActive: 1
--- !u!1 &166470
GameObject:
  m_ObjectHideFlags: 1
  m_PrefabParentObject: {fileID: 0}
  m_PrefabInternal: {fileID: 100100000}
  serializedVersion: 4
  m_Component:
  - 4: {fileID: 430666}
  m_Layer: 0
  m_Name: hips
  m_TagString: Untagged
  m_Icon: {fileID: 0}
  m_NavMeshLayer: 0
  m_StaticEditorFlags: 0
  m_IsActive: 1
--- !u!1 &167262
GameObject:
  m_ObjectHideFlags: 1
  m_PrefabParentObject: {fileID: 0}
  m_PrefabInternal: {fileID: 100100000}
  serializedVersion: 4
  m_Component:
  - 4: {fileID: 471166}
  m_Layer: 0
  m_Name: thumb_03_L
  m_TagString: Untagged
  m_Icon: {fileID: 0}
  m_NavMeshLayer: 0
  m_StaticEditorFlags: 0
  m_IsActive: 1
--- !u!1 &167814
GameObject:
  m_ObjectHideFlags: 1
  m_PrefabParentObject: {fileID: 0}
  m_PrefabInternal: {fileID: 100100000}
  serializedVersion: 4
  m_Component:
  - 4: {fileID: 460864}
  m_Layer: 0
  m_Name: f_middle_03_L
  m_TagString: Untagged
  m_Icon: {fileID: 0}
  m_NavMeshLayer: 0
  m_StaticEditorFlags: 0
  m_IsActive: 1
--- !u!1 &168624
GameObject:
  m_ObjectHideFlags: 1
  m_PrefabParentObject: {fileID: 0}
  m_PrefabInternal: {fileID: 100100000}
  serializedVersion: 4
  m_Component:
  - 4: {fileID: 406790}
  m_Layer: 0
  m_Name: f_middle_01_L
  m_TagString: Untagged
  m_Icon: {fileID: 0}
  m_NavMeshLayer: 0
  m_StaticEditorFlags: 0
  m_IsActive: 1
--- !u!1 &168780
GameObject:
  m_ObjectHideFlags: 1
  m_PrefabParentObject: {fileID: 0}
  m_PrefabInternal: {fileID: 100100000}
  serializedVersion: 4
  m_Component:
  - 4: {fileID: 428104}
  m_Layer: 0
  m_Name: hand_R
  m_TagString: Untagged
  m_Icon: {fileID: 0}
  m_NavMeshLayer: 0
  m_StaticEditorFlags: 0
  m_IsActive: 1
--- !u!1 &170248
GameObject:
  m_ObjectHideFlags: 1
  m_PrefabParentObject: {fileID: 0}
  m_PrefabInternal: {fileID: 100100000}
  serializedVersion: 4
  m_Component:
  - 4: {fileID: 410682}
  m_Layer: 0
  m_Name: f_index_02_L
  m_TagString: Untagged
  m_Icon: {fileID: 0}
  m_NavMeshLayer: 0
  m_StaticEditorFlags: 0
  m_IsActive: 1
--- !u!1 &170502
GameObject:
  m_ObjectHideFlags: 1
  m_PrefabParentObject: {fileID: 0}
  m_PrefabInternal: {fileID: 100100000}
  serializedVersion: 4
  m_Component:
  - 4: {fileID: 464776}
  m_Layer: 0
  m_Name: f_index_01_R
  m_TagString: Untagged
  m_Icon: {fileID: 0}
  m_NavMeshLayer: 0
  m_StaticEditorFlags: 0
  m_IsActive: 1
--- !u!1 &173754
GameObject:
  m_ObjectHideFlags: 1
  m_PrefabParentObject: {fileID: 0}
  m_PrefabInternal: {fileID: 100100000}
  serializedVersion: 4
  m_Component:
  - 4: {fileID: 420184}
  m_Layer: 0
  m_Name: forearm_R
  m_TagString: Untagged
  m_Icon: {fileID: 0}
  m_NavMeshLayer: 0
  m_StaticEditorFlags: 0
  m_IsActive: 1
--- !u!1 &174312
GameObject:
  m_ObjectHideFlags: 1
  m_PrefabParentObject: {fileID: 0}
  m_PrefabInternal: {fileID: 100100000}
  serializedVersion: 4
  m_Component:
  - 4: {fileID: 465634}
  m_Layer: 0
  m_Name: f_ring_03_L
  m_TagString: Untagged
  m_Icon: {fileID: 0}
  m_NavMeshLayer: 0
  m_StaticEditorFlags: 0
  m_IsActive: 1
--- !u!1 &174726
GameObject:
  m_ObjectHideFlags: 1
  m_PrefabParentObject: {fileID: 0}
  m_PrefabInternal: {fileID: 100100000}
  serializedVersion: 4
  m_Component:
  - 4: {fileID: 466818}
  m_Layer: 0
  m_Name: f_ring_02_R
  m_TagString: Untagged
  m_Icon: {fileID: 0}
  m_NavMeshLayer: 0
  m_StaticEditorFlags: 0
  m_IsActive: 1
--- !u!1 &175710
GameObject:
  m_ObjectHideFlags: 1
  m_PrefabParentObject: {fileID: 0}
  m_PrefabInternal: {fileID: 100100000}
  serializedVersion: 4
  m_Component:
  - 4: {fileID: 428570}
  m_Layer: 0
  m_Name: hand_L
  m_TagString: Untagged
  m_Icon: {fileID: 0}
  m_NavMeshLayer: 0
  m_StaticEditorFlags: 0
  m_IsActive: 1
--- !u!1 &180146
GameObject:
  m_ObjectHideFlags: 1
  m_PrefabParentObject: {fileID: 0}
  m_PrefabInternal: {fileID: 100100000}
  serializedVersion: 4
  m_Component:
  - 4: {fileID: 440620}
  m_Layer: 0
  m_Name: upper_arm_L
  m_TagString: Untagged
  m_Icon: {fileID: 0}
  m_NavMeshLayer: 0
  m_StaticEditorFlags: 0
  m_IsActive: 1
--- !u!1 &182858
GameObject:
  m_ObjectHideFlags: 1
  m_PrefabParentObject: {fileID: 0}
  m_PrefabInternal: {fileID: 100100000}
  serializedVersion: 4
  m_Component:
  - 4: {fileID: 434270}
  m_Layer: 0
  m_Name: f_ring_01_R
  m_TagString: Untagged
  m_Icon: {fileID: 0}
  m_NavMeshLayer: 0
  m_StaticEditorFlags: 0
  m_IsActive: 1
--- !u!1 &183330
GameObject:
  m_ObjectHideFlags: 1
  m_PrefabParentObject: {fileID: 0}
  m_PrefabInternal: {fileID: 100100000}
  serializedVersion: 4
  m_Component:
  - 4: {fileID: 475132}
  m_Layer: 0
  m_Name: shoulder_L
  m_TagString: Untagged
  m_Icon: {fileID: 0}
  m_NavMeshLayer: 0
  m_StaticEditorFlags: 0
  m_IsActive: 1
--- !u!1 &186108
GameObject:
  m_ObjectHideFlags: 1
  m_PrefabParentObject: {fileID: 0}
  m_PrefabInternal: {fileID: 100100000}
  serializedVersion: 4
  m_Component:
  - 4: {fileID: 451324}
  m_Layer: 0
  m_Name: f_ring_02_L
  m_TagString: Untagged
  m_Icon: {fileID: 0}
  m_NavMeshLayer: 0
  m_StaticEditorFlags: 0
  m_IsActive: 1
--- !u!1 &186562
GameObject:
  m_ObjectHideFlags: 1
  m_PrefabParentObject: {fileID: 0}
  m_PrefabInternal: {fileID: 100100000}
  serializedVersion: 4
  m_Component:
  - 4: {fileID: 417416}
  m_Layer: 0
  m_Name: palm_04_R
  m_TagString: Untagged
  m_Icon: {fileID: 0}
  m_NavMeshLayer: 0
  m_StaticEditorFlags: 0
  m_IsActive: 1
--- !u!1 &186632
GameObject:
  m_ObjectHideFlags: 0
  m_PrefabParentObject: {fileID: 0}
  m_PrefabInternal: {fileID: 100100000}
  serializedVersion: 4
  m_Component:
  - 4: {fileID: 454712}
  - 95: {fileID: 9524370}
  m_Layer: 0
  m_Name: playerarms
  m_TagString: Untagged
  m_Icon: {fileID: 0}
  m_NavMeshLayer: 0
  m_StaticEditorFlags: 0
  m_IsActive: 1
--- !u!1 &187002
GameObject:
  m_ObjectHideFlags: 1
  m_PrefabParentObject: {fileID: 0}
  m_PrefabInternal: {fileID: 100100000}
  serializedVersion: 4
  m_Component:
  - 4: {fileID: 448116}
  m_Layer: 0
  m_Name: thumb_01_R
  m_TagString: Untagged
  m_Icon: {fileID: 0}
  m_NavMeshLayer: 0
  m_StaticEditorFlags: 0
  m_IsActive: 1
--- !u!1 &188334
GameObject:
  m_ObjectHideFlags: 1
  m_PrefabParentObject: {fileID: 0}
  m_PrefabInternal: {fileID: 100100000}
  serializedVersion: 4
  m_Component:
  - 4: {fileID: 463932}
  m_Layer: 0
  m_Name: f_ring_03_R
  m_TagString: Untagged
  m_Icon: {fileID: 0}
  m_NavMeshLayer: 0
  m_StaticEditorFlags: 0
  m_IsActive: 1
--- !u!1 &192746
GameObject:
  m_ObjectHideFlags: 1
  m_PrefabParentObject: {fileID: 0}
  m_PrefabInternal: {fileID: 100100000}
  serializedVersion: 4
  m_Component:
  - 4: {fileID: 430778}
  m_Layer: 0
  m_Name: f_middle_01_R
  m_TagString: Untagged
  m_Icon: {fileID: 0}
  m_NavMeshLayer: 0
  m_StaticEditorFlags: 0
  m_IsActive: 1
--- !u!1 &194370
GameObject:
  m_ObjectHideFlags: 1
  m_PrefabParentObject: {fileID: 0}
  m_PrefabInternal: {fileID: 100100000}
  serializedVersion: 4
  m_Component:
  - 4: {fileID: 458564}
  m_Layer: 0
  m_Name: f_pinky_02_R
  m_TagString: Untagged
  m_Icon: {fileID: 0}
  m_NavMeshLayer: 0
  m_StaticEditorFlags: 0
  m_IsActive: 1
--- !u!1 &197516
GameObject:
  m_ObjectHideFlags: 1
  m_PrefabParentObject: {fileID: 0}
  m_PrefabInternal: {fileID: 100100000}
  serializedVersion: 4
  m_Component:
  - 4: {fileID: 446930}
  m_Layer: 0
  m_Name: f_pinky_03_L
  m_TagString: Untagged
  m_Icon: {fileID: 0}
  m_NavMeshLayer: 0
  m_StaticEditorFlags: 0
  m_IsActive: 1
--- !u!4 &400234
Transform:
  m_ObjectHideFlags: 1
  m_PrefabParentObject: {fileID: 0}
  m_PrefabInternal: {fileID: 100100000}
  m_GameObject: {fileID: 162452}
  m_LocalRotation: {x: 0, y: 0, z: 0, w: 1}
  m_LocalPosition: {x: 0, y: 0, z: 0}
  m_LocalScale: {x: 1, y: 1, z: 1}
  m_LocalEulerAnglesHint: {x: 0, y: 0, z: 0}
  m_Children:
  - {fileID: 454712}
  m_Father: {fileID: 0}
  m_RootOrder: 0
--- !u!4 &400900
Transform:
  m_ObjectHideFlags: 1
  m_PrefabParentObject: {fileID: 0}
  m_PrefabInternal: {fileID: 100100000}
  m_GameObject: {fileID: 129586}
  m_LocalRotation: {x: -0.14165962, y: 0.04154532, z: -0.19184494, w: 0.9702588}
  m_LocalPosition: {x: -0.32527006, y: 0, z: 0.00000044703484}
  m_LocalScale: {x: 0.9999999, y: 0.99999976, z: 0.9999997}
  m_LocalEulerAnglesHint: {x: 0, y: 0, z: 0}
  m_Children:
  - {fileID: 460636}
  m_Father: {fileID: 448116}
  m_RootOrder: 0
--- !u!4 &406790
Transform:
  m_ObjectHideFlags: 1
  m_PrefabParentObject: {fileID: 0}
  m_PrefabInternal: {fileID: 100100000}
  m_GameObject: {fileID: 168624}
  m_LocalRotation: {x: -0.017257784, y: 0.03669447, z: 0.08035656, w: 0.99594104}
  m_LocalPosition: {x: -0.70186234, y: 0.00000071525574, z: -0.0000008791685}
  m_LocalScale: {x: 1.0000001, y: 1, z: 0.99999994}
  m_LocalEulerAnglesHint: {x: 0, y: 0, z: 0}
  m_Children:
  - {fileID: 486974}
  m_Father: {fileID: 474082}
  m_RootOrder: 0
--- !u!4 &407646
Transform:
  m_ObjectHideFlags: 1
  m_PrefabParentObject: {fileID: 0}
  m_PrefabInternal: {fileID: 100100000}
  m_GameObject: {fileID: 154328}
  m_LocalRotation: {x: 0, y: 0, z: 0, w: 1}
  m_LocalPosition: {x: 0, y: 0, z: 0}
  m_LocalScale: {x: 1, y: 1, z: 1}
  m_LocalEulerAnglesHint: {x: 0, y: 0, z: 0}
  m_Children: []
  m_Father: {fileID: 454712}
  m_RootOrder: 1
--- !u!4 &409496
Transform:
  m_ObjectHideFlags: 1
  m_PrefabParentObject: {fileID: 0}
  m_PrefabInternal: {fileID: 100100000}
  m_GameObject: {fileID: 130768}
  m_LocalRotation: {x: -0.07538905, y: -0.09246787, z: -0.017954132, w: 0.9926953}
  m_LocalPosition: {x: -0.44988585, y: 0.18482983, z: -0.056690678}
  m_LocalScale: {x: 0.9999997, y: 0.9999999, z: 0.9999998}
  m_LocalEulerAnglesHint: {x: 0, y: 0, z: 0}
  m_Children:
  - {fileID: 434270}
  m_Father: {fileID: 428104}
  m_RootOrder: 2
--- !u!4 &410682
Transform:
  m_ObjectHideFlags: 1
  m_PrefabParentObject: {fileID: 0}
  m_PrefabInternal: {fileID: 100100000}
  m_GameObject: {fileID: 170248}
  m_LocalRotation: {x: 0.003605974, y: 0.10054201, z: 0.0014017728, w: 0.9949253}
  m_LocalPosition: {x: -0.27467686, y: -0.00000035762787, z: 0.00000011920929}
  m_LocalScale: {x: 1.0000001, y: 1, z: 1.0000002}
  m_LocalEulerAnglesHint: {x: 0, y: 0, z: 0}
  m_Children:
  - {fileID: 494112}
  m_Father: {fileID: 479184}
  m_RootOrder: 0
--- !u!4 &411816
Transform:
  m_ObjectHideFlags: 1
  m_PrefabParentObject: {fileID: 0}
  m_PrefabInternal: {fileID: 100100000}
  m_GameObject: {fileID: 129926}
  m_LocalRotation: {x: -0.00025677396, y: 0.15847889, z: -0.0043579782, w: 0.9873527}
  m_LocalPosition: {x: -0.5301573, y: -0.00000071525574, z: -0.00000008940697}
  m_LocalScale: {x: 0.9999999, y: 0.99999994, z: 0.9999999}
  m_LocalEulerAnglesHint: {x: 0, y: 0, z: 0}
  m_Children:
  - {fileID: 497842}
  m_Father: {fileID: 482312}
  m_RootOrder: 0
--- !u!4 &413974
Transform:
  m_ObjectHideFlags: 1
  m_PrefabParentObject: {fileID: 0}
  m_PrefabInternal: {fileID: 100100000}
  m_GameObject: {fileID: 107658}
  m_LocalRotation: {x: -0.0076448163, y: 0.012772598, z: -0.013605838, w: 0.9997966}
  m_LocalPosition: {x: -0.1545524, y: 0, z: 0.0000006556511}
  m_LocalScale: {x: 0.9999999, y: 1, z: 1}
  m_LocalEulerAnglesHint: {x: 0, y: 0, z: 0}
  m_Children: []
  m_Father: {fileID: 458564}
  m_RootOrder: 0
--- !u!4 &414704
Transform:
  m_ObjectHideFlags: 1
  m_PrefabParentObject: {fileID: 0}
  m_PrefabInternal: {fileID: 100100000}
  m_GameObject: {fileID: 142500}
  m_LocalRotation: {x: 0.3825434, y: -0.26862842, z: 0.8357596, w: 0.2881063}
  m_LocalPosition: {x: -1.3720467, y: -0.65941584, z: 0.18380308}
  m_LocalScale: {x: 0.9999999, y: 0.99999994, z: 1.0000002}
  m_LocalEulerAnglesHint: {x: 0, y: 0, z: 0}
  m_Children: []
  m_Father: {fileID: 425470}
  m_RootOrder: 0
--- !u!4 &415892
Transform:
  m_ObjectHideFlags: 1
  m_PrefabParentObject: {fileID: 0}
  m_PrefabInternal: {fileID: 100100000}
  m_GameObject: {fileID: 142332}
  m_LocalRotation: {x: 0.781406, y: -0.5417429, z: 0.2662601, w: -0.15819266}
  m_LocalPosition: {x: -0.24227422, y: 0.0000033508986, z: -0.0000010430813}
  m_LocalScale: {x: 1.0000002, y: 0.99999994, z: 0.99999994}
  m_LocalEulerAnglesHint: {x: 0, y: 0, z: 0}
  m_Children: []
  m_Father: {fileID: 436940}
  m_RootOrder: 2
--- !u!4 &417416
Transform:
  m_ObjectHideFlags: 1
  m_PrefabParentObject: {fileID: 0}
  m_PrefabInternal: {fileID: 100100000}
  m_GameObject: {fileID: 186562}
  m_LocalRotation: {x: -0.15711842, y: -0.10257655, z: -0.13874216, w: 0.9723901}
  m_LocalPosition: {x: -0.47360516, y: 0.26918674, z: -0.0705021}
  m_LocalScale: {x: 0.9999998, y: 0.99999976, z: 0.9999999}
  m_LocalEulerAnglesHint: {x: 0, y: 0, z: 0}
  m_Children:
  - {fileID: 431100}
  m_Father: {fileID: 428104}
  m_RootOrder: 3
--- !u!4 &419496
Transform:
  m_ObjectHideFlags: 1
  m_PrefabParentObject: {fileID: 0}
  m_PrefabInternal: {fileID: 100100000}
  m_GameObject: {fileID: 109264}
  m_LocalRotation: {x: -0.003605974, y: 0.10054204, z: -0.0014017812, w: 0.9949253}
  m_LocalPosition: {x: -0.27467674, y: 0.00000011920929, z: 0.00000023841858}
  m_LocalScale: {x: 0.99999994, y: 1, z: 1.0000001}
  m_LocalEulerAnglesHint: {x: 0, y: 0, z: 0}
  m_Children:
  - {fileID: 428946}
  m_Father: {fileID: 464776}
  m_RootOrder: 0
--- !u!4 &420184
Transform:
  m_ObjectHideFlags: 1
  m_PrefabParentObject: {fileID: 0}
  m_PrefabInternal: {fileID: 100100000}
  m_GameObject: {fileID: 173754}
  m_LocalRotation: {x: -0.000011477362, y: 0.38359064, z: 0.0000041366684, w: 0.9235032}
  m_LocalPosition: {x: -2.422622, y: 0.0000010877848, z: 0.000000007450581}
  m_LocalScale: {x: 1, y: 1, z: 1}
  m_LocalEulerAnglesHint: {x: 0, y: 0, z: 0}
  m_Children:
  - {fileID: 428104}
  m_Father: {fileID: 436940}
  m_RootOrder: 1
--- !u!4 &421882
Transform:
  m_ObjectHideFlags: 1
  m_PrefabParentObject: {fileID: 0}
  m_PrefabInternal: {fileID: 100100000}
  m_GameObject: {fileID: 109114}
  m_LocalRotation: {x: 0.000030654457, y: 0.38359675, z: -0.00002204682, w: 0.9235007}
  m_LocalPosition: {x: -2.4226224, y: 0.00000034086406, z: 0.00000012665987}
  m_LocalScale: {x: 1, y: 1.0000001, z: 1}
  m_LocalEulerAnglesHint: {x: 0, y: 0, z: 0}
  m_Children: []
  m_Father: {fileID: 440620}
  m_RootOrder: 0
--- !u!4 &425222
Transform:
  m_ObjectHideFlags: 1
  m_PrefabParentObject: {fileID: 0}
  m_PrefabInternal: {fileID: 100100000}
  m_GameObject: {fileID: 124156}
  m_LocalRotation: {x: 0.38254344, y: 0.26862842, z: 0.8357596, w: -0.2881063}
  m_LocalPosition: {x: -1.3720466, y: 0.6594161, z: 0.18380404}
  m_LocalScale: {x: 1, y: 1, z: 1.0000001}
  m_LocalEulerAnglesHint: {x: 0, y: 0, z: 0}
  m_Children: []
  m_Father: {fileID: 475132}
  m_RootOrder: 0
--- !u!4 &425470
Transform:
  m_ObjectHideFlags: 1
  m_PrefabParentObject: {fileID: 0}
  m_PrefabInternal: {fileID: 100100000}
  m_GameObject: {fileID: 128264}
  m_LocalRotation: {x: -0.39636284, y: 0.57834446, z: 0.5021224, w: -0.50624824}
  m_LocalPosition: {x: -4.374898, y: 0.23936239, z: 1.4333549}
  m_LocalScale: {x: 1, y: 1, z: 1}
  m_LocalEulerAnglesHint: {x: 0, y: 0, z: 0}
  m_Children:
  - {fileID: 414704}
  - {fileID: 436940}
  m_Father: {fileID: 430666}
  m_RootOrder: 1
--- !u!4 &428104
Transform:
  m_ObjectHideFlags: 1
  m_PrefabParentObject: {fileID: 0}
  m_PrefabInternal: {fileID: 100100000}
  m_GameObject: {fileID: 168780}
  m_LocalRotation: {x: -0.6711479, y: 0.11595729, z: -0.07975712, w: 0.7278415}
  m_LocalPosition: {x: -2.6484241, y: 0.00000071525574, z: -0.00000035762787}
  m_LocalScale: {x: 1, y: 0.99999994, z: 1}
  m_LocalEulerAnglesHint: {x: 0, y: 0, z: 0}
  m_Children:
  - {fileID: 458190}
  - {fileID: 474254}
  - {fileID: 409496}
  - {fileID: 417416}
  - {fileID: 448116}
  m_Father: {fileID: 420184}
  m_RootOrder: 0
--- !u!4 &428570
Transform:
  m_ObjectHideFlags: 1
  m_PrefabParentObject: {fileID: 0}
  m_PrefabInternal: {fileID: 100100000}
  m_GameObject: {fileID: 175710}
  m_LocalRotation: {x: 0.67114794, y: 0.11595717, z: 0.079757124, w: 0.72784144}
  m_LocalPosition: {x: -2.6484241, y: -0.0000009834766, z: -0.00000023841858}
  m_LocalScale: {x: 1, y: 0.9999999, z: 1.0000001}
  m_LocalEulerAnglesHint: {x: 0, y: 0, z: 0}
  m_Children:
  - {fileID: 478458}
  - {fileID: 474082}
  - {fileID: 429168}
  - {fileID: 482312}
  - {fileID: 459182}
  m_Father: {fileID: 489404}
  m_RootOrder: 0
--- !u!4 &428946
Transform:
  m_ObjectHideFlags: 1
  m_PrefabParentObject: {fileID: 0}
  m_PrefabInternal: {fileID: 100100000}
  m_GameObject: {fileID: 109232}
  m_LocalRotation: {x: 0.006649235, y: 0.0158956, z: 0.0035443043, w: 0.99984527}
  m_LocalPosition: {x: -0.24636623, y: 0.00000047683716, z: 0.000000834465}
  m_LocalScale: {x: 0.99999994, y: 1, z: 0.99999994}
  m_LocalEulerAnglesHint: {x: 0, y: 0, z: 0}
  m_Children: []
  m_Father: {fileID: 419496}
  m_RootOrder: 0
--- !u!4 &429168
Transform:
  m_ObjectHideFlags: 1
  m_PrefabParentObject: {fileID: 0}
  m_PrefabInternal: {fileID: 100100000}
  m_GameObject: {fileID: 137282}
  m_LocalRotation: {x: 0.06276632, y: -0.08728454, z: 0.042121645, w: 0.9933114}
  m_LocalPosition: {x: -0.44730973, y: -0.1527723, z: -0.060845125}
  m_LocalScale: {x: 0.99999994, y: 0.9999999, z: 0.9999999}
  m_LocalEulerAnglesHint: {x: 0, y: 0, z: 0}
  m_Children:
  - {fileID: 475060}
  m_Father: {fileID: 428570}
  m_RootOrder: 2
--- !u!4 &429980
Transform:
  m_ObjectHideFlags: 1
  m_PrefabParentObject: {fileID: 0}
  m_PrefabInternal: {fileID: 100100000}
  m_GameObject: {fileID: 118840}
  m_LocalRotation: {x: -0.0048811114, y: -0.0035392656, z: -0.0131298, w: 0.99989563}
  m_LocalPosition: {x: -0.27212185, y: 0.00000011920929, z: 0.00000044703484}
  m_LocalScale: {x: 0.9999999, y: 0.99999994, z: 0.9999998}
  m_LocalEulerAnglesHint: {x: 0, y: 0, z: 0}
  m_Children: []
  m_Father: {fileID: 441318}
  m_RootOrder: 0
--- !u!4 &430666
Transform:
  m_ObjectHideFlags: 1
  m_PrefabParentObject: {fileID: 0}
  m_PrefabInternal: {fileID: 100100000}
  m_GameObject: {fileID: 166470}
  m_LocalRotation: {x: 0.43812072, y: 0.43812037, z: -0.5550231, w: 0.55502266}
  m_LocalPosition: {x: -0, y: -0.025841, z: 9.99034}
  m_LocalScale: {x: 1, y: 1, z: 1}
  m_LocalEulerAnglesHint: {x: 0, y: 0, z: 0}
  m_Children:
  - {fileID: 475132}
  - {fileID: 425470}
  m_Father: {fileID: 485896}
  m_RootOrder: 0
--- !u!4 &430778
Transform:
  m_ObjectHideFlags: 1
  m_PrefabParentObject: {fileID: 0}
  m_PrefabInternal: {fileID: 100100000}
  m_GameObject: {fileID: 192746}
  m_LocalRotation: {x: 0.01725779, y: 0.03669447, z: -0.080356546, w: 0.99594104}
  m_LocalPosition: {x: -0.70186293, y: 0, z: 0.00000011920929}
  m_LocalScale: {x: 1.0000001, y: 1, z: 0.99999994}
  m_LocalEulerAnglesHint: {x: 0, y: 0, z: 0}
  m_Children:
  - {fileID: 441318}
  m_Father: {fileID: 474254}
  m_RootOrder: 0
--- !u!4 &431100
Transform:
  m_ObjectHideFlags: 1
  m_PrefabParentObject: {fileID: 0}
  m_PrefabInternal: {fileID: 100100000}
  m_GameObject: {fileID: 126514}
  m_LocalRotation: {x: -0.0007363426, y: 0.17249535, z: -0.019183762, w: 0.9848232}
  m_LocalPosition: {x: -0.5224922, y: 0.00000023841858, z: -0.00000078976154}
  m_LocalScale: {x: 0.99999994, y: 0.9999998, z: 0.9999998}
  m_LocalEulerAnglesHint: {x: 0, y: 0, z: 0}
  m_Children:
  - {fileID: 458564}
  m_Father: {fileID: 417416}
  m_RootOrder: 0
--- !u!4 &434270
Transform:
  m_ObjectHideFlags: 1
  m_PrefabParentObject: {fileID: 0}
  m_PrefabInternal: {fileID: 100100000}
  m_GameObject: {fileID: 182858}
  m_LocalRotation: {x: 0.036629707, y: 0.06690436, z: -0.12111454, w: 0.98970366}
  m_LocalPosition: {x: -0.6236632, y: -0.00000011920929, z: 0.00000094622374}
  m_LocalScale: {x: 0.99999976, y: 0.9999998, z: 1}
  m_LocalEulerAnglesHint: {x: 0, y: 0, z: 0}
  m_Children:
  - {fileID: 466818}
  m_Father: {fileID: 409496}
  m_RootOrder: 0
--- !u!4 &436940
Transform:
  m_ObjectHideFlags: 1
  m_PrefabParentObject: {fileID: 0}
  m_PrefabInternal: {fileID: 100100000}
  m_GameObject: {fileID: 162246}
  m_LocalRotation: {x: -0.6998876, y: -0.24626529, z: -0.24380739, w: 0.6245549}
  m_LocalPosition: {x: -1.8634198, y: 0.00000028312206, z: -0.0000017490238}
  m_LocalScale: {x: 1.0000001, y: 0.9999999, z: 1}
  m_LocalEulerAnglesHint: {x: 0, y: 0, z: 0}
  m_Children:
  - {fileID: 472472}
  - {fileID: 420184}
  - {fileID: 415892}
  m_Father: {fileID: 425470}
  m_RootOrder: 1
--- !u!4 &440620
Transform:
  m_ObjectHideFlags: 1
  m_PrefabParentObject: {fileID: 0}
  m_PrefabInternal: {fileID: 100100000}
  m_GameObject: {fileID: 180146}
  m_LocalRotation: {x: 0.6998875, y: -0.24626541, z: 0.24380739, w: 0.6245549}
  m_LocalPosition: {x: -1.8634198, y: 0.000000074505806, z: -0.00000079348683}
  m_LocalScale: {x: 1.0000002, y: 0.9999999, z: 1}
  m_LocalEulerAnglesHint: {x: 0, y: 0, z: 0}
  m_Children:
  - {fileID: 421882}
  - {fileID: 489404}
  - {fileID: 456378}
  m_Father: {fileID: 475132}
  m_RootOrder: 1
--- !u!4 &441318
Transform:
  m_ObjectHideFlags: 1
  m_PrefabParentObject: {fileID: 0}
  m_PrefabInternal: {fileID: 100100000}
  m_GameObject: {fileID: 163986}
  m_LocalRotation: {x: 0.0030527401, y: 0.09991184, z: 0.0063036433, w: 0.9949717}
  m_LocalPosition: {x: -0.34691906, y: -0.00000023841858, z: -0.00000035436824}
  m_LocalScale: {x: 1, y: 0.9999999, z: 0.9999998}
  m_LocalEulerAnglesHint: {x: 0, y: 0, z: 0}
  m_Children:
  - {fileID: 429980}
  m_Father: {fileID: 430778}
  m_RootOrder: 0
--- !u!4 &446930
Transform:
  m_ObjectHideFlags: 1
  m_PrefabParentObject: {fileID: 0}
  m_PrefabInternal: {fileID: 100100000}
  m_GameObject: {fileID: 197516}
  m_LocalRotation: {x: 0.007644849, y: 0.012772597, z: 0.013605817, w: 0.9997966}
  m_LocalPosition: {x: -0.15455204, y: 0.00000047683716, z: 0.0000007748604}
  m_LocalScale: {x: 0.9999999, y: 0.9999999, z: 0.9999999}
  m_LocalEulerAnglesHint: {x: 0, y: 0, z: 0}
  m_Children: []
  m_Father: {fileID: 497842}
  m_RootOrder: 0
--- !u!4 &448116
Transform:
  m_ObjectHideFlags: 1
  m_PrefabParentObject: {fileID: 0}
  m_PrefabInternal: {fileID: 100100000}
  m_GameObject: {fileID: 187002}
  m_LocalRotation: {x: -0.56557065, y: 0.1676246, z: 0.45077446, w: 0.6699509}
  m_LocalPosition: {x: -0.48118424, y: -0.22945476, z: 0.0034617037}
  m_LocalScale: {x: 0.99999976, y: 0.99999976, z: 0.9999998}
  m_LocalEulerAnglesHint: {x: 0, y: 0, z: 0}
  m_Children:
  - {fileID: 400900}
  m_Father: {fileID: 428104}
  m_RootOrder: 4
--- !u!4 &451324
Transform:
  m_ObjectHideFlags: 1
  m_PrefabParentObject: {fileID: 0}
  m_PrefabInternal: {fileID: 100100000}
  m_GameObject: {fileID: 186108}
  m_LocalRotation: {x: -0.0043711523, y: 0.10842089, z: -0.012875877, w: 0.99401206}
  m_LocalPosition: {x: -0.3067026, y: 0, z: -0.00000036880374}
  m_LocalScale: {x: 1, y: 0.9999998, z: 0.9999998}
  m_LocalEulerAnglesHint: {x: 0, y: 0, z: 0}
  m_Children:
  - {fileID: 465634}
  m_Father: {fileID: 475060}
  m_RootOrder: 0
--- !u!4 &454712
Transform:
  m_ObjectHideFlags: 1
  m_PrefabParentObject: {fileID: 0}
  m_PrefabInternal: {fileID: 100100000}
  m_GameObject: {fileID: 186632}
  m_LocalRotation: {x: 0, y: 0, z: 0, w: 1}
  m_LocalPosition: {x: 0, y: -1.508, z: 0}
  m_LocalScale: {x: 0.09751003, y: 0.09751003, z: 0.09751003}
  m_LocalEulerAnglesHint: {x: 0, y: 0, z: 0}
  m_Children:
  - {fileID: 485896}
  - {fileID: 407646}
  m_Father: {fileID: 400234}
  m_RootOrder: 0
--- !u!4 &456378
Transform:
  m_ObjectHideFlags: 1
  m_PrefabParentObject: {fileID: 0}
  m_PrefabInternal: {fileID: 100100000}
  m_GameObject: {fileID: 124366}
  m_LocalRotation: {x: 0.7814061, y: 0.54174274, z: 0.2662602, w: 0.1581928}
  m_LocalPosition: {x: -0.24227399, y: -0.000002041459, z: -0.000000923872}
  m_LocalScale: {x: 1.0000004, y: 1, z: 1}
  m_LocalEulerAnglesHint: {x: 0, y: 0, z: 0}
  m_Children: []
  m_Father: {fileID: 440620}
  m_RootOrder: 2
--- !u!4 &458190
Transform:
  m_ObjectHideFlags: 1
  m_PrefabParentObject: {fileID: 0}
  m_PrefabInternal: {fileID: 100100000}
  m_GameObject: {fileID: 152416}
  m_LocalRotation: {x: -0.2320212, y: -0.0683834, z: 0.105539806, w: 0.96454716}
  m_LocalPosition: {x: -0.4147719, y: -0.08413744, z: 0.004877353}
  m_LocalScale: {x: 0.9999999, y: 0.9999998, z: 1}
  m_LocalEulerAnglesHint: {x: 0, y: 0, z: 0}
  m_Children:
  - {fileID: 464776}
  m_Father: {fileID: 428104}
  m_RootOrder: 0
--- !u!4 &458564
Transform:
  m_ObjectHideFlags: 1
  m_PrefabParentObject: {fileID: 0}
  m_PrefabInternal: {fileID: 100100000}
  m_GameObject: {fileID: 194370}
  m_LocalRotation: {x: 0.0048331204, y: 0.068885975, z: 0.007358816, w: 0.9975857}
  m_LocalPosition: {x: -0.23462033, y: -0.00000023841858, z: 0.0000006556511}
  m_LocalScale: {x: 1, y: 0.9999998, z: 1}
  m_LocalEulerAnglesHint: {x: 0, y: 0, z: 0}
  m_Children:
  - {fileID: 413974}
  m_Father: {fileID: 431100}
  m_RootOrder: 0
--- !u!4 &459182
Transform:
  m_ObjectHideFlags: 1
  m_PrefabParentObject: {fileID: 0}
  m_PrefabInternal: {fileID: 100100000}
  m_GameObject: {fileID: 106750}
  m_LocalRotation: {x: 0.5663375, y: 0.16710818, z: -0.4509661, w: 0.6693028}
  m_LocalPosition: {x: -0.48118448, y: 0.22945511, z: 0.0034617428}
  m_LocalScale: {x: 0.99999994, y: 0.99999994, z: 1}
  m_LocalEulerAnglesHint: {x: 0, y: 0, z: 0}
  m_Children:
  - {fileID: 477918}
  m_Father: {fileID: 428570}
  m_RootOrder: 4
--- !u!4 &460636
Transform:
  m_ObjectHideFlags: 1
  m_PrefabParentObject: {fileID: 0}
  m_PrefabInternal: {fileID: 100100000}
  m_GameObject: {fileID: 164906}
  m_LocalRotation: {x: 0.009426235, y: 0.036232498, z: 0.003290497, w: 0.99929357}
  m_LocalPosition: {x: -0.39125395, y: -0.00000047683716, z: -0.0000008940697}
  m_LocalScale: {x: 0.9999998, y: 1, z: 1.0000001}
  m_LocalEulerAnglesHint: {x: 0, y: 0, z: 0}
  m_Children: []
  m_Father: {fileID: 400900}
  m_RootOrder: 0
--- !u!4 &460864
Transform:
  m_ObjectHideFlags: 1
  m_PrefabParentObject: {fileID: 0}
  m_PrefabInternal: {fileID: 100100000}
  m_GameObject: {fileID: 167814}
  m_LocalRotation: {x: 0.004881102, y: -0.0035392693, z: 0.013129788, w: 0.99989563}
  m_LocalPosition: {x: -0.272121, y: -0.00000011920929, z: 0.00000035762787}
  m_LocalScale: {x: 0.9999998, y: 0.9999999, z: 0.99999976}
  m_LocalEulerAnglesHint: {x: 0, y: 0, z: 0}
  m_Children: []
  m_Father: {fileID: 486974}
  m_RootOrder: 0
--- !u!4 &463932
Transform:
  m_ObjectHideFlags: 1
  m_PrefabParentObject: {fileID: 0}
  m_PrefabInternal: {fileID: 100100000}
  m_GameObject: {fileID: 188334}
  m_LocalRotation: {x: -0.0053885877, y: -0.0076409983, z: -0.02614012, w: 0.9996146}
  m_LocalPosition: {x: -0.25808167, y: 0.00000047683716, z: -0.000000059604645}
  m_LocalScale: {x: 1, y: 0.9999999, z: 0.9999999}
  m_LocalEulerAnglesHint: {x: 0, y: 0, z: 0}
  m_Children: []
  m_Father: {fileID: 466818}
  m_RootOrder: 0
--- !u!4 &464776
Transform:
  m_ObjectHideFlags: 1
  m_PrefabParentObject: {fileID: 0}
  m_PrefabInternal: {fileID: 100100000}
  m_GameObject: {fileID: 170502}
  m_LocalRotation: {x: -0.00469892, y: 0.10015136, z: -0.0048670466, w: 0.9949492}
  m_LocalPosition: {x: -0.75201464, y: -0.00000011920929, z: -0.0000006556511}
  m_LocalScale: {x: 1, y: 0.99999994, z: 0.9999998}
  m_LocalEulerAnglesHint: {x: 0, y: 0, z: 0}
  m_Children:
  - {fileID: 419496}
  m_Father: {fileID: 458190}
  m_RootOrder: 0
--- !u!4 &465634
Transform:
  m_ObjectHideFlags: 1
  m_PrefabParentObject: {fileID: 0}
  m_PrefabInternal: {fileID: 100100000}
  m_GameObject: {fileID: 174312}
  m_LocalRotation: {x: 0.005388605, y: -0.0076410007, z: 0.02614013, w: 0.9996146}
  m_LocalPosition: {x: -0.25808156, y: -0.00000071525574, z: 0.00000020861626}
  m_LocalScale: {x: 0.99999994, y: 0.9999998, z: 0.99999994}
  m_LocalEulerAnglesHint: {x: 0, y: 0, z: 0}
  m_Children: []
  m_Father: {fileID: 451324}
  m_RootOrder: 0
--- !u!4 &466818
Transform:
  m_ObjectHideFlags: 1
  m_PrefabParentObject: {fileID: 0}
  m_PrefabInternal: {fileID: 100100000}
  m_GameObject: {fileID: 174726}
  m_LocalRotation: {x: 0.004371159, y: 0.108420886, z: 0.012875851, w: 0.99401206}
  m_LocalPosition: {x: -0.30670345, y: 0.00000011920929, z: -0.000000033527613}
  m_LocalScale: {x: 0.99999994, y: 0.99999994, z: 0.99999994}
  m_LocalEulerAnglesHint: {x: 0, y: 0, z: 0}
  m_Children:
  - {fileID: 463932}
  m_Father: {fileID: 434270}
  m_RootOrder: 0
--- !u!4 &471166
Transform:
  m_ObjectHideFlags: 1
  m_PrefabParentObject: {fileID: 0}
  m_PrefabInternal: {fileID: 100100000}
  m_GameObject: {fileID: 167262}
  m_LocalRotation: {x: -0.009496085, y: 0.03623033, z: -0.0033144099, w: 0.99929285}
  m_LocalPosition: {x: -0.39125395, y: 0, z: 0.0000006556511}
  m_LocalScale: {x: 0.99999994, y: 0.99999994, z: 1}
  m_LocalEulerAnglesHint: {x: 0, y: 0, z: 0}
  m_Children: []
  m_Father: {fileID: 477918}
  m_RootOrder: 0
--- !u!4 &472472
Transform:
  m_ObjectHideFlags: 1
  m_PrefabParentObject: {fileID: 0}
  m_PrefabInternal: {fileID: 100100000}
  m_GameObject: {fileID: 157714}
  m_LocalRotation: {x: -0.000030596973, y: 0.38359675, z: 0.000022065416, w: 0.9235007}
  m_LocalPosition: {x: -2.422622, y: 0.0000010877848, z: 0.000000007450581}
  m_LocalScale: {x: 1, y: 1, z: 1}
  m_LocalEulerAnglesHint: {x: 0, y: 0, z: 0}
  m_Children: []
  m_Father: {fileID: 436940}
  m_RootOrder: 0
--- !u!4 &474082
Transform:
  m_ObjectHideFlags: 1
  m_PrefabParentObject: {fileID: 0}
  m_PrefabInternal: {fileID: 100100000}
  m_GameObject: {fileID: 120382}
  m_LocalRotation: {x: 0.038484637, y: -0.046028648, z: -0.01939436, w: 0.9980101}
  m_LocalPosition: {x: -0.43695068, y: -0.032003164, z: -0.046357263}
  m_LocalScale: {x: 1, y: 1, z: 0.99999994}
  m_LocalEulerAnglesHint: {x: 0, y: 0, z: 0}
  m_Children:
  - {fileID: 406790}
  m_Father: {fileID: 428570}
  m_RootOrder: 1
--- !u!4 &474254
Transform:
  m_ObjectHideFlags: 1
  m_PrefabParentObject: {fileID: 0}
  m_PrefabInternal: {fileID: 100100000}
  m_GameObject: {fileID: 116016}
  m_LocalRotation: {x: -0.038484644, y: -0.046028636, z: 0.01939436, w: 0.9980101}
  m_LocalPosition: {x: -0.43695045, y: 0.032002926, z: -0.046357773}
  m_LocalScale: {x: 0.99999976, y: 0.9999997, z: 0.99999976}
  m_LocalEulerAnglesHint: {x: 0, y: 0, z: 0}
  m_Children:
  - {fileID: 430778}
  m_Father: {fileID: 428104}
  m_RootOrder: 1
--- !u!4 &475060
Transform:
  m_ObjectHideFlags: 1
  m_PrefabParentObject: {fileID: 0}
  m_PrefabInternal: {fileID: 100100000}
  m_GameObject: {fileID: 134650}
  m_LocalRotation: {x: -0.025693888, y: 0.059367616, z: 0.096986406, w: 0.9931812}
  m_LocalPosition: {x: -0.6269504, y: 0.00000071525574, z: -0.0000011324883}
  m_LocalScale: {x: 0.99999994, y: 1, z: 0.9999999}
  m_LocalEulerAnglesHint: {x: 0, y: 0, z: 0}
  m_Children:
  - {fileID: 451324}
  m_Father: {fileID: 429168}
  m_RootOrder: 0
--- !u!4 &475132
Transform:
  m_ObjectHideFlags: 1
  m_PrefabParentObject: {fileID: 0}
  m_PrefabInternal: {fileID: 100100000}
  m_GameObject: {fileID: 183330}
  m_LocalRotation: {x: 0.39636293, y: 0.57834446, z: -0.5021225, w: -0.5062482}
  m_LocalPosition: {x: -4.374898, y: -0.23936158, z: 1.4333552}
  m_LocalScale: {x: 1, y: 1, z: 1}
  m_LocalEulerAnglesHint: {x: 0, y: 0, z: 0}
  m_Children:
  - {fileID: 425222}
  - {fileID: 440620}
  m_Father: {fileID: 430666}
  m_RootOrder: 0
--- !u!4 &477918
Transform:
  m_ObjectHideFlags: 1
  m_PrefabParentObject: {fileID: 0}
  m_PrefabInternal: {fileID: 100100000}
  m_GameObject: {fileID: 111752}
  m_LocalRotation: {x: 0.14090264, y: 0.041834835, z: 0.19178209, w: 0.970369}
  m_LocalPosition: {x: -0.32527018, y: -0.00000023841858, z: 0.000001013279}
  m_LocalScale: {x: 0.99999994, y: 0.9999998, z: 0.9999998}
  m_LocalEulerAnglesHint: {x: 0, y: 0, z: 0}
  m_Children:
  - {fileID: 471166}
  m_Father: {fileID: 459182}
  m_RootOrder: 0
--- !u!4 &478458
Transform:
  m_ObjectHideFlags: 1
  m_PrefabParentObject: {fileID: 0}
  m_PrefabInternal: {fileID: 100100000}
  m_GameObject: {fileID: 163600}
  m_LocalRotation: {x: 0.23202127, y: -0.06838344, z: -0.105539836, w: 0.96454716}
  m_LocalPosition: {x: -0.41477227, y: 0.08413768, z: 0.0048769135}
  m_LocalScale: {x: 0.99999994, y: 1, z: 1}
  m_LocalEulerAnglesHint: {x: 0, y: 0, z: 0}
  m_Children:
  - {fileID: 479184}
  m_Father: {fileID: 428570}
  m_RootOrder: 0
--- !u!4 &479184
Transform:
  m_ObjectHideFlags: 1
  m_PrefabParentObject: {fileID: 0}
  m_PrefabInternal: {fileID: 100100000}
  m_GameObject: {fileID: 100460}
  m_LocalRotation: {x: 0.0046989513, y: 0.100151375, z: 0.004867061, w: 0.9949492}
  m_LocalPosition: {x: -0.752015, y: 0.00000023841858, z: -0.00000008940697}
  m_LocalScale: {x: 1, y: 0.9999999, z: 0.9999998}
  m_LocalEulerAnglesHint: {x: 0, y: 0, z: 0}
  m_Children:
  - {fileID: 410682}
  m_Father: {fileID: 478458}
  m_RootOrder: 0
--- !u!4 &482312
Transform:
  m_ObjectHideFlags: 1
  m_PrefabParentObject: {fileID: 0}
  m_PrefabInternal: {fileID: 100100000}
  m_GameObject: {fileID: 118710}
  m_LocalRotation: {x: 0.15735638, y: -0.091652185, z: 0.1638517, w: 0.9695316}
  m_LocalPosition: {x: -0.47220337, y: -0.24017596, z: -0.075955406}
  m_LocalScale: {x: 1, y: 1.0000001, z: 0.9999999}
  m_LocalEulerAnglesHint: {x: 0, y: 0, z: 0}
  m_Children:
  - {fileID: 411816}
  m_Father: {fileID: 428570}
  m_RootOrder: 3
--- !u!4 &485896
Transform:
  m_ObjectHideFlags: 1
  m_PrefabParentObject: {fileID: 0}
  m_PrefabInternal: {fileID: 100100000}
  m_GameObject: {fileID: 134270}
  m_LocalRotation: {x: -0.7071068, y: 0, z: -0, w: 0.7071067}
  m_LocalPosition: {x: 0, y: 0, z: 0}
  m_LocalScale: {x: 1, y: 1, z: 1}
  m_LocalEulerAnglesHint: {x: 0, y: 0, z: 0}
  m_Children:
  - {fileID: 430666}
  m_Father: {fileID: 454712}
  m_RootOrder: 0
--- !u!4 &486974
Transform:
  m_ObjectHideFlags: 1
  m_PrefabParentObject: {fileID: 0}
  m_PrefabInternal: {fileID: 100100000}
  m_GameObject: {fileID: 129064}
  m_LocalRotation: {x: -0.003052727, y: 0.09991182, z: -0.006303658, w: 0.9949717}
  m_LocalPosition: {x: -0.34691906, y: 0.00000035762787, z: 0.00000012200326}
  m_LocalScale: {x: 0.99999976, y: 0.99999976, z: 0.9999999}
  m_LocalEulerAnglesHint: {x: 0, y: 0, z: 0}
  m_Children:
  - {fileID: 460864}
  m_Father: {fileID: 406790}
  m_RootOrder: 0
--- !u!4 &489404
Transform:
  m_ObjectHideFlags: 1
  m_PrefabParentObject: {fileID: 0}
  m_PrefabInternal: {fileID: 100100000}
  m_GameObject: {fileID: 116994}
  m_LocalRotation: {x: 0.000011528794, y: 0.38359064, z: -0.0000041180433, w: 0.9235032}
  m_LocalPosition: {x: -2.4226224, y: 0.00000034086406, z: 0.00000012665987}
  m_LocalScale: {x: 1.0000001, y: 1, z: 1}
  m_LocalEulerAnglesHint: {x: 0, y: 0, z: 0}
  m_Children:
  - {fileID: 428570}
  m_Father: {fileID: 440620}
  m_RootOrder: 1
--- !u!4 &494112
Transform:
  m_ObjectHideFlags: 1
  m_PrefabParentObject: {fileID: 0}
  m_PrefabInternal: {fileID: 100100000}
  m_GameObject: {fileID: 148620}
  m_LocalRotation: {x: -0.006649212, y: 0.01589558, z: -0.0035443008, w: 0.99984527}
  m_LocalPosition: {x: -0.24636574, y: 0, z: 0.0000010728836}
  m_LocalScale: {x: 1, y: 0.9999999, z: 0.9999999}
  m_LocalEulerAnglesHint: {x: 0, y: 0, z: 0}
  m_Children: []
  m_Father: {fileID: 410682}
  m_RootOrder: 0
--- !u!4 &497842
Transform:
  m_ObjectHideFlags: 1
  m_PrefabParentObject: {fileID: 0}
  m_PrefabInternal: {fileID: 100100000}
  m_GameObject: {fileID: 118956}
  m_LocalRotation: {x: -0.004833124, y: 0.06888598, z: -0.007358802, w: 0.9975857}
  m_LocalPosition: {x: -0.23462093, y: 0.00000071525574, z: 0}
  m_LocalScale: {x: 1, y: 0.9999998, z: 1}
  m_LocalEulerAnglesHint: {x: 0, y: 0, z: 0}
  m_Children:
  - {fileID: 446930}
  m_Father: {fileID: 411816}
  m_RootOrder: 0
--- !u!95 &9524370
Animator:
  serializedVersion: 3
  m_ObjectHideFlags: 1
  m_PrefabParentObject: {fileID: 0}
  m_PrefabInternal: {fileID: 100100000}
  m_GameObject: {fileID: 186632}
  m_Enabled: 1
  m_Avatar: {fileID: 9000000, guid: aa0490fe6386d8b49bdfa8c65f4a8ef8, type: 3}
  m_Controller: {fileID: 0}
  m_CullingMode: 1
  m_UpdateMode: 0
  m_ApplyRootMotion: 0
  m_LinearVelocityBlending: 0
  m_WarningMessage: 
  m_HasTransformHierarchy: 1
  m_AllowConstantClipSamplingOptimization: 1
--- !u!137 &13791448
SkinnedMeshRenderer:
  m_ObjectHideFlags: 1
  m_PrefabParentObject: {fileID: 0}
  m_PrefabInternal: {fileID: 100100000}
  m_GameObject: {fileID: 154328}
  m_Enabled: 1
  m_CastShadows: 0
  m_ReceiveShadows: 1
  m_MotionVectors: 1
  m_LightProbeUsage: 1
  m_ReflectionProbeUsage: 1
  m_Materials:
  - {fileID: 2100000, guid: 3e23c5f39d30c134e83d286aa8ceef2a, type: 2}
  m_SubsetIndices: 
  m_StaticBatchRoot: {fileID: 0}
  m_ProbeAnchor: {fileID: 0}
  m_LightProbeVolumeOverride: {fileID: 0}
  m_ScaleInLightmap: 1
  m_PreserveUVs: 0
  m_IgnoreNormalsForChartDetection: 0
  m_ImportantGI: 0
  m_SelectedWireframeHidden: 0
  m_MinimumChartSize: 4
  m_AutoUVMaxDistance: 0.5
  m_AutoUVMaxAngle: 89
  m_LightmapParameters: {fileID: 0}
  m_SortingLayerID: 0
  m_SortingOrder: 0
  serializedVersion: 2
  m_Quality: 0
  m_UpdateWhenOffscreen: 0
  m_SkinnedMotionVectors: 1
  m_Mesh: {fileID: 4300000, guid: aa0490fe6386d8b49bdfa8c65f4a8ef8, type: 3}
  m_Bones:
  - {fileID: 430666}
  - {fileID: 0}
  - {fileID: 0}
  - {fileID: 0}
  - {fileID: 0}
  - {fileID: 0}
  - {fileID: 0}
  - {fileID: 0}
  - {fileID: 0}
  - {fileID: 0}
  - {fileID: 0}
  - {fileID: 0}
  - {fileID: 0}
  - {fileID: 0}
  - {fileID: 0}
  - {fileID: 0}
  - {fileID: 0}
  - {fileID: 0}
  - {fileID: 0}
  - {fileID: 0}
  - {fileID: 0}
  - {fileID: 0}
  - {fileID: 425470}
  - {fileID: 414704}
  - {fileID: 436940}
  - {fileID: 472472}
  - {fileID: 415892}
  - {fileID: 420184}
  - {fileID: 428104}
  - {fileID: 417416}
  - {fileID: 431100}
  - {fileID: 458564}
  - {fileID: 413974}
  - {fileID: 474254}
  - {fileID: 430778}
  - {fileID: 441318}
  - {fileID: 429980}
  - {fileID: 409496}
  - {fileID: 434270}
  - {fileID: 466818}
  - {fileID: 463932}
  - {fileID: 448116}
  - {fileID: 400900}
  - {fileID: 460636}
  - {fileID: 458190}
  - {fileID: 464776}
  - {fileID: 419496}
  - {fileID: 428946}
  - {fileID: 475132}
  - {fileID: 425222}
  - {fileID: 440620}
  - {fileID: 421882}
  - {fileID: 456378}
  - {fileID: 489404}
  - {fileID: 428570}
  - {fileID: 482312}
  - {fileID: 411816}
  - {fileID: 497842}
  - {fileID: 446930}
  - {fileID: 474082}
  - {fileID: 406790}
  - {fileID: 486974}
  - {fileID: 460864}
  - {fileID: 478458}
  - {fileID: 479184}
  - {fileID: 410682}
  - {fileID: 494112}
  - {fileID: 429168}
  - {fileID: 475060}
  - {fileID: 451324}
  - {fileID: 465634}
  - {fileID: 459182}
  - {fileID: 477918}
  - {fileID: 471166}
  - {fileID: 0}
  - {fileID: 0}
  - {fileID: 0}
  - {fileID: 0}
  - {fileID: 0}
  - {fileID: 0}
  - {fileID: 0}
  - {fileID: 0}
  - {fileID: 0}
  - {fileID: 0}
  - {fileID: 0}
  - {fileID: 0}
  - {fileID: 0}
  - {fileID: 0}
  - {fileID: 0}
  - {fileID: 0}
  - {fileID: 0}
  - {fileID: 0}
  - {fileID: 0}
  - {fileID: 0}
  - {fileID: 0}
  - {fileID: 0}
  - {fileID: 0}
  - {fileID: 0}
  m_BlendShapeWeights: []
  m_RootBone: {fileID: 430666}
  m_AABB:
    m_Center: {x: -1.3444893, y: -0.0021414757, z: 1.646814}
    m_Extent: {x: 2.5814779, y: 5.798899, z: 1.9907624}
  m_DirtyAABB: 0
--- !u!1001 &100100000
Prefab:
  m_ObjectHideFlags: 1
  serializedVersion: 2
  m_Modification:
    m_TransformParent: {fileID: 0}
    m_Modifications: []
    m_RemovedComponents: []
  m_ParentPrefab: {fileID: 0}
  m_RootGameObject: {fileID: 162452}
  m_IsPrefabParent: 1
